…
t_test_1 = 
  rerun(5000, t_test(sample_size = 30, mu = 0, sigma = 5)) %>% 
  bind_rows
t_test_1
```

    ## # A tibble: 5,000 × 2
    ##    estimate p.value
    ##       <dbl>   <dbl>
    ##  1    0.321   0.730
    ##  2    0.221   0.815
    ##  3    0.607   0.518
    ##  4    0.175   0.829
    ##  5    1.11    0.220
    ##  6   -0.811   0.319
    ##  7   -0.378   0.680
    ##  8   -0.784   0.372
    ##  9   -0.748   0.271
    ## 10    0.343   0.667
    ## # … with 4,990 more rows
…
